19장 선형 모형
…
## [1] 1.377931

2 다중 회귀 모형

# 19.2 Multiple Regression
housing <- read_csv("http://www.jaredlander.com/data/housing.csv")

names(housing) <- c("Neightborhood", "Class", "Units", "YearBuilt",
                    "SqFt", "Income", "IncomePerSqFT", "Expense",
                    "ExpensePerSqFt", "NetIncome", "Value", 
                    "ValuePerSqFt", "Boro")
housing

## # A tibble: 2,626 x 13
##    Neightborhood Class Units YearBuilt   SqFt Income IncomePerSqFT Expense
##    <chr>         <chr> <int>     <int>  <int>  <int>         <dbl>   <int>
##  1 FINANCIAL     R9-C~    42      1920  36500 1.33e6          36.5  342005
##  2 FINANCIAL     R4-C~    78      1985 126420 6.63e6          52.5 1762295
##  3 FINANCIAL     RR-C~   500        NA 554174 1.73e7          31.2 3543000
##  4 FINANCIAL     R4-C~   282      1930 249076 1.18e7          47.3 2784670
##  5 TRIBECA       R4-C~   239      1985 219495 1.00e7          45.6 2783197
##  6 TRIBECA       R4-C~   133      1986 139719 5.13e6          36.7 1497788
##  7 TRIBECA       R4-C~   109      1985 105000 4.37e6          41.6 1273650
##  8 TRIBECA       R4-C~   107      1986  87479 3.64e6          41.6 1061120
##  9 TRIBECA       R4-C~   247      1987 255845 1.12e7          44.0 2440761
## 10 TRIBECA       R4-C~   121      1985 106129 4.12e6          38.8 1231096
## # ... with 2,616 more rows, and 5 more variables: ExpensePerSqFt <dbl>,
## #   NetIncome <int>, Value <int>, ValuePerSqFt <dbl>, Boro <chr>
…
